%YAML 1.1
%TAG !u! tag:unity3d.com,2011:
--- !u!114 &11400000
MonoBehaviour:
  m_ObjectHideFlags: 0
  m_CorrespondingSourceObject: {fileID: 0}
  m_PrefabInstance: {fileID: 0}
  m_PrefabAsset: {fileID: 0}
  m_GameObject: {fileID: 0}
  m_Enabled: 1
  m_EditorHideFlags: 0
  m_Script: {fileID: 11500000, guid: 168e24c349053314c8301737ebbacb25, type: 3}
  m_Name: Volley
  m_EditorClassIdentifier: 
  name: Volley
  description: Ashe fires 9 arrows in a cone for increased damage. Also applies Frost
    Shot.
  cooldown: 6
  damage: 5
  skillType: 0
  icon: {fileID: 21300000, guid: b6b6686f22cf1b044a5cbb1f3cd33be4, type: 3}
  effect: {fileID: 0}
